toplevel.vcd
$date
	Tue Oct 17 10:54:47 2023
$end
$version
	ModelSim Version 2020.1
$end
$timescale
	1ps
$end

$scope module toplevel_tb $end

$scope module toplevel_instance $end
$var wire 1 ! CLK $end
$var wire 1 " RST $end
$var wire 1 # HZRD $end
$var wire 1 $ LFT $end
$var wire 1 % RGHT $end
$var wire 1 & SLW_CLK $end
$var wire 1 ' LIGHTS [5] $end
$var wire 1 ( LIGHTS [4] $end
$var wire 1 ) LIGHTS [3] $end
$var wire 1 * LIGHTS [2] $end
$var wire 1 + LIGHTS [1] $end
$var wire 1 , LIGHTS [0] $end
$var wire 1 - slw_clock $end
$upscope $end
$upscope $end
$enddefinitions $end
#0
$dumpvars
0!
1"
0&
1#
0$
0%
0-
0'
0(
0)
0*
0+
0,
$end
#1000000000
1!
#2000000000
0!
#3000000000
1!
#4000000000
0!
#5000000000
1!
#6000000000
0!
#7000000000
1!
#8000000000
0!
#9000000000
1!
1-
1&
#10000000000
0!
#11000000000
1!
#12000000000
0!
#13000000000
1!
#14000000000
0!
#15000000000
1!
#16000000000
0!
#17000000000
1!
#18000000000
0!
#19000000000
1!
0-
0&
#20000000000
0!
#21000000000
1!
#22000000000
0!
#23000000000
1!
#24000000000
0!
#25000000000
1!
#26000000000
0!
#27000000000
1!
#28000000000
0!
#29000000000
1!
1-
1&
#30000000000
0!
#31000000000
1!
#32000000000
0!
#33000000000
1!
#34000000000
0!
#35000000000
1!
#36000000000
0!
#37000000000
1!
#38000000000
0!
#39000000000
1!
0-
0&
#40000000000
0!
#41000000000
1!
#42000000000
0!
#43000000000
1!
#44000000000
0!
#45000000000
1!
#46000000000
0!
#47000000000
1!
#48000000000
0!
#49000000000
1!
1-
1&
#50000000000
0!
#51000000000
1!
#52000000000
0!
#53000000000
1!
#54000000000
0!
#55000000000
1!
#56000000000
0!
#57000000000
1!
#58000000000
0!
#59000000000
1!
0-
0&
#60000000000
0!
#61000000000
1!
#62000000000
0!
#63000000000
1!
#64000000000
0!
#65000000000
1!
#66000000000
0!
#67000000000
1!
#68000000000
0!
#69000000000
1!
1-
1&
#70000000000
0!
#71000000000
1!
#72000000000
0!
#73000000000
1!
#74000000000
0!
#75000000000
1!
#76000000000
0!
#77000000000
1!
#78000000000
0!
#79000000000
1!
0-
0&
#80000000000
0!
#81000000000
1!
#82000000000
0!
#83000000000
1!
#84000000000
0!
#85000000000
1!
#86000000000
0!
#87000000000
1!
#88000000000
0!
#89000000000
1!
1-
1&
#90000000000
0!
#91000000000
1!
#92000000000
0!
#93000000000
1!
#94000000000
0!
#95000000000
1!
#96000000000
0!
#97000000000
1!
#98000000000
0!
#99000000000
1!
0-
0&
#100000000000
0!
0"
#101000000000
1!
#102000000000
0!
#103000000000
1!
#104000000000
0!
#105000000000
1!
#106000000000
0!
#107000000000
1!
#108000000000
0!
#109000000000
1!
1-
1&
#110000000000
0!
#111000000000
1!
#112000000000
0!
#113000000000
1!
#114000000000
0!
#115000000000
1!
#116000000000
0!
#117000000000
1!
#118000000000
0!
#119000000000
1!
0-
0&
#120000000000
0!
#121000000000
1!
#122000000000
0!
#123000000000
1!
#124000000000
0!
#125000000000
1!
#126000000000
0!
#127000000000
1!
#128000000000
0!
#129000000000
1!
1-
1&
#130000000000
0!
#131000000000
1!
#132000000000
0!
#133000000000
1!
#134000000000
0!
#135000000000
1!
#136000000000
0!
#137000000000
1!
#138000000000
0!
#139000000000
1!
0-
0&
#140000000000
0!
#141000000000
1!
#142000000000
0!
#143000000000
1!
#144000000000
0!
#145000000000
1!
#146000000000
0!
#147000000000
1!
#148000000000
0!
#149000000000
1!
1-
1&
#150000000000
0!
1"
#151000000000
1!
#152000000000
0!
#153000000000
1!
#154000000000
0!
#155000000000
1!
#156000000000
0!
#157000000000
1!
#158000000000
0!
#159000000000
1!
0-
0&
#160000000000
0!
#161000000000
1!
#162000000000
0!
#163000000000
1!
#164000000000
0!
#165000000000
1!
#166000000000
0!
#167000000000
1!
#168000000000
0!
#169000000000
1!
1-
1&
#170000000000
0!
#171000000000
1!
#172000000000
0!
#173000000000
1!
#174000000000
0!
#175000000000
1!
#176000000000
0!
#177000000000
1!
#178000000000
0!
#179000000000
1!
0-
0&
#180000000000
0!
#181000000000
1!
#182000000000
0!
#183000000000
1!
#184000000000
0!
#185000000000
1!
#186000000000
0!
#187000000000
1!
#188000000000
0!
#189000000000
1!
1-
1&
#190000000000
0!
#191000000000
1!
#192000000000
0!
#193000000000
1!
#194000000000
0!
#195000000000
1!
#196000000000
0!
#197000000000
1!
#198000000000
0!
#199000000000
1!
0-
0&
#200000000000
0!
#201000000000
1!
#202000000000
0!
#203000000000
1!
#204000000000
0!
#205000000000
1!
#206000000000
0!
#207000000000
1!
#208000000000
0!
#209000000000
1!
1-
1&
#210000000000
0!
#211000000000
1!
#212000000000
0!
#213000000000
1!
#214000000000
0!
#215000000000
1!
#216000000000
0!
#217000000000
1!
#218000000000
0!
#219000000000
1!
0-
0&
#220000000000
0!
#221000000000
1!
#222000000000
0!
#223000000000
1!
#224000000000
0!
#225000000000
1!
#226000000000
0!
#227000000000
1!
#228000000000
0!
#229000000000
1!
1-
1&
#230000000000
0!
#231000000000
1!
#232000000000
0!
#233000000000
1!
#234000000000
0!
#235000000000
1!
#236000000000
0!
#237000000000
1!
#238000000000
0!
#239000000000
1!
0-
0&
#240000000000
0!
#241000000000
1!
#242000000000
0!
#243000000000
1!
#244000000000
0!
#245000000000
1!
#246000000000
0!
#247000000000
1!
#248000000000
0!
#249000000000
1!
1-
1&
#250000000000
0!
0#
#251000000000
1!
#252000000000
0!
#253000000000
1!
#254000000000
0!
#255000000000
1!
#256000000000
0!
#257000000000
1!
#258000000000
0!
#259000000000
1!
0-
0&
#260000000000
0!
#261000000000
1!
#262000000000
0!
#263000000000
1!
#264000000000
0!
#265000000000
1!
#266000000000
0!
#267000000000
1!
#268000000000
0!
#269000000000
1!
1-
1&
#270000000000
0!
#271000000000
1!
#272000000000
0!
#273000000000
1!
#274000000000
0!
#275000000000
1!
#276000000000
0!
#277000000000
1!
#278000000000
0!
#279000000000
1!
0-
0&
#280000000000
0!
#281000000000
1!
#282000000000
0!
#283000000000
1!
#284000000000
0!
#285000000000
1!
#286000000000
0!
#287000000000
1!
#288000000000
0!
#289000000000
1!
1-
1&
#290000000000
0!
#291000000000
1!
#292000000000
0!
#293000000000
1!
#294000000000
0!
#295000000000
1!
#296000000000
0!
#297000000000
1!
#298000000000
0!
#299000000000
1!
0-
0&
#300000000000
0!
#301000000000
1!
#302000000000
0!
#303000000000
1!
#304000000000
0!
#305000000000
1!
#306000000000
0!
#307000000000
1!
#308000000000
0!
#309000000000
1!
1-
1&
#310000000000
0!
#311000000000
1!
#312000000000
0!
#313000000000
1!
#314000000000
0!
#315000000000
1!
#316000000000
0!
#317000000000
1!
#318000000000
0!
#319000000000
1!
0-
0&
#320000000000
0!
#321000000000
1!
#322000000000
0!
#323000000000
1!
#324000000000
0!
#325000000000
1!
#326000000000
0!
#327000000000
1!
#328000000000
0!
#329000000000
1!
1-
1&
#330000000000
0!
#331000000000
1!
#332000000000
0!
#333000000000
1!
#334000000000
0!
#335000000000
1!
#336000000000
0!
#337000000000
1!
#338000000000
0!
#339000000000
1!
0-
0&
#340000000000
0!
#341000000000
1!
#342000000000
0!
#343000000000
1!
#344000000000
0!
#345000000000
1!
#346000000000
0!
#347000000000
1!
#348000000000
0!
#349000000000
1!
1-
1&
#350000000000
0!
1$
#351000000000
1!
#352000000000
0!
#353000000000
1!
#354000000000
0!
#355000000000
1!
#356000000000
0!
#357000000000
1!
#358000000000
0!
#359000000000
1!
0-
0&
#360000000000
0!
#361000000000
1!
#362000000000
0!
#363000000000
1!
#364000000000
0!
#365000000000
1!
#366000000000
0!
#367000000000
1!
#368000000000
0!
#369000000000
1!
1-
1&
#370000000000
0!
#371000000000
1!
#372000000000
0!
#373000000000
1!
#374000000000
0!
#375000000000
1!
#376000000000
0!
#377000000000
1!
#378000000000
0!
#379000000000
1!
0-
0&
#380000000000
0!
#381000000000
1!
#382000000000
0!
#383000000000
1!
#384000000000
0!
#385000000000
1!
#386000000000
0!
#387000000000
1!
#388000000000
0!
#389000000000
1!
1-
1&
#390000000000
0!
#391000000000
1!
#392000000000
0!
#393000000000
1!
#394000000000
0!
#395000000000
1!
#396000000000
0!
#397000000000
1!
#398000000000
0!
#399000000000
1!
0-
0&
#400000000000
0!
#401000000000
1!
#402000000000
0!
#403000000000
1!
#404000000000
0!
#405000000000
1!
#406000000000
0!
#407000000000
1!
#408000000000
0!
#409000000000
1!
1-
1&
#410000000000
0!
#411000000000
1!
#412000000000
0!
#413000000000
1!
#414000000000
0!
#415000000000
1!
#416000000000
0!
#417000000000
1!
#418000000000
0!
#419000000000
1!
0-
0&
#420000000000
0!
#421000000000
1!
#422000000000
0!
#423000000000
1!
#424000000000
0!
#425000000000
1!
#426000000000
0!
#427000000000
1!
#428000000000
0!
#429000000000
1!
1-
1&
#430000000000
0!
#431000000000
1!
#432000000000
0!
#433000000000
1!
#434000000000
0!
#435000000000
1!
#436000000000
0!
#437000000000
1!
#438000000000
0!
#439000000000
1!
0-
0&
#440000000000
0!
#441000000000
1!
#442000000000
0!
#443000000000
1!
#444000000000
0!
#445000000000
1!
#446000000000
0!
#447000000000
1!
#448000000000
0!
#449000000000
1!
1-
1&
#450000000000
0!
0$
#451000000000
1!
#452000000000
0!
#453000000000
1!
#454000000000
0!
#455000000000
1!
#456000000000
0!
#457000000000
1!
#458000000000
0!
#459000000000
1!
0-
0&
#460000000000
0!
#461000000000
1!
#462000000000
0!
#463000000000
1!
#464000000000
0!
#465000000000
1!
#466000000000
0!
#467000000000
1!
#468000000000
0!
#469000000000
1!
1-
1&
#470000000000
0!
#471000000000
1!
#472000000000
0!
#473000000000
1!
#474000000000
0!
#475000000000
1!
#476000000000
0!
#477000000000
1!
#478000000000
0!
#479000000000
1!
0-
0&
#480000000000
0!
#481000000000
1!
#482000000000
0!
#483000000000
1!
#484000000000
0!
#485000000000
1!
#486000000000
0!
#487000000000
1!
#488000000000
0!
#489000000000
1!
1-
1&
#490000000000
0!
#491000000000
1!
#492000000000
0!
#493000000000
1!
#494000000000
0!
#495000000000
1!
#496000000000
0!
#497000000000
1!
#498000000000
0!
#499000000000
1!
0-
0&
#500000000000
0!
#501000000000
1!
#502000000000
0!
#503000000000
1!
#504000000000
0!
#505000000000
1!
#506000000000
0!
#507000000000
1!
#508000000000
0!
#509000000000
1!
1-
1&
#510000000000
0!
#511000000000
1!
#512000000000
0!
#513000000000
1!
#514000000000
0!
#515000000000
1!
#516000000000
0!
#517000000000
1!
#518000000000
0!
#519000000000
1!
0-
0&
#520000000000
0!
#521000000000
1!
#522000000000
0!
#523000000000
1!
#524000000000
0!
#525000000000
1!
#526000000000
0!
#527000000000
1!
#528000000000
0!
#529000000000
1!
1-
1&
#530000000000
0!
#531000000000
1!
#532000000000
0!
#533000000000
1!
#534000000000
0!
#535000000000
1!
#536000000000
0!
#537000000000
1!
#538000000000
0!
#539000000000
1!
0-
0&
#540000000000
0!
#541000000000
1!
#542000000000
0!
#543000000000
1!
#544000000000
0!
#545000000000
1!
#546000000000
0!
#547000000000
1!
#548000000000
0!
#549000000000
1!
1-
1&
#550000000000
0!
1%
#551000000000
1!
#552000000000
0!
#553000000000
1!
#554000000000
0!
#555000000000
1!
#556000000000
0!
#557000000000
1!
#558000000000
0!
#559000000000
1!
0-
0&
#560000000000
0!
#561000000000
1!
#562000000000
0!
#563000000000
1!
#564000000000
0!
#565000000000
1!
#566000000000
0!
#567000000000
1!
#568000000000
0!
#569000000000
1!
1-
1&
#570000000000
0!
#571000000000
1!
#572000000000
0!
#573000000000
1!
#574000000000
0!
#575000000000
1!
#576000000000
0!
#577000000000
1!
#578000000000
0!
#579000000000
1!
0-
0&
#580000000000
0!
#581000000000
1!
#582000000000
0!
#583000000000
1!
#584000000000
0!
#585000000000
1!
#586000000000
0!
#587000000000
1!
#588000000000
0!
#589000000000
1!
1-
1&
#590000000000
0!
#591000000000
1!
#592000000000
0!
#593000000000
1!
#594000000000
0!
#595000000000
1!
#596000000000
0!
#597000000000
1!
#598000000000
0!
#599000000000
1!
0-
0&
#600000000000
0!
#601000000000
1!
#602000000000
0!
#603000000000
1!
#604000000000
0!
#605000000000
1!
#606000000000
0!
#607000000000
1!
#608000000000
0!
#609000000000
1!
1-
1&
#610000000000
0!
#611000000000
1!
#612000000000
0!
#613000000000
1!
#614000000000
0!
#615000000000
1!
#616000000000
0!
#617000000000
1!
#618000000000
0!
#619000000000
1!
0-
0&
#620000000000
0!
#621000000000
1!
#622000000000
0!
#623000000000
1!
#624000000000
0!
#625000000000
1!
#626000000000
0!
#627000000000
1!
#628000000000
0!
#629000000000
1!
1-
1&
#630000000000
0!
#631000000000
1!
#632000000000
0!
#633000000000
1!
#634000000000
0!
#635000000000
1!
#636000000000
0!
#637000000000
1!
#638000000000
0!
#639000000000
1!
0-
0&
#640000000000
0!
#641000000000
1!
#642000000000
0!
#643000000000
1!
#644000000000
0!
#645000000000
1!
#646000000000
0!
#647000000000
1!
#648000000000
0!
#649000000000
1!
1-
1&
#650000000000
0!
0"
